Package Display Name,Package Name,Package Version,Author,Release Date,Link to Confluence or/Share point for release notes,Link to Confluence or/Share point for release checklist,Tag/Label,Tags/Keywords,Supported Version,Package Location
NI DAQ - AIO,adi_zcg_lib_ni_daq_aio_config_screen-1.0.1.5.vip,1.0.1.5,ADI,,www.analog.com,,,,,Reusables/Instrument Config Panels/AIO
APx5xx Series,adi_zcg_lib_apx5xx_series_config_screen-1.0.0.3.vip,1.0.0.3,ADI,,www.analog.com,,,,,Reusables/Instrument Config Panels/Audio Precision
NI DAQ - DIO,adi_zcg_lib_ni_daq_dio_config_screen-2.0.1.3.vip,2.0.1.3,ADI,,www.analog.com,,,,,Reusables/Instrument Config Panels/DIO
Keithley 2002,adi_zcg_lib_keithley_2002_config_screen-2.0.0.6.vip,2.0.0.6,ADI,,www.analog.com,,,,,Reusables/Instrument Config Panels/DMM
Keithley 2000,adi_zcg_lib_keithley_2000_config_screen-2.0.0.3.vip,2.0.0.3,ADI,,www.analog.com,,,,,Reusables/Instrument Config Panels/DMM
EPM Series Power Meter,adi_zcg_lib_epm_series_power_meter_config_screen-1.0.0.3.vip,1.0.0.3,ADI,,www.analog.com,,,,,Reusables/Instrument Config Panels/DMM
NI DMM,adi_zcg_lib_ni_dmm_config_screen-2.0.1.6.vip,2.0.1.6,ADI,,www.analog.com,,,,,Reusables/Instrument Config Panels/DMM
Agilent 34401,adi_zcg_lib_agilent_34401_config_screen-2.0.1.9.vip,2.0.1.9,ADI,,www.analog.com,,,,,Reusables/Instrument Config Panels/DMM
Agilent 3458A,adi_zcg_lib_agilent_3458a_config_screen-1.0.0.4.vip,1.0.0.4,ADI,,www.analog.com,,,,,Reusables/Instrument Config Panels/DMM
Agilent PSG MXG Series,adi_zcg_lib_agilent_psg_mxg_series_config_screen-2.0.1.5.vip,2.0.1.5,ADI,,www.analog.com,,,,,Reusables/Instrument Config Panels/FGEN
Agilent 3352X Series,adi_zcg_lib_agilent_3352x_config_screen-2.0.1.6.vip,2.0.1.6,ADI,,www.analog.com,,,,,Reusables/Instrument Config Panels/FGEN
Agilent 33XXX Series,adi_zcg_lib_agilent_33xxx_series_config_screen-2.0.1.9.vip,2.0.1.9,ADI,,www.analog.com,,,,,Reusables/Instrument Config Panels/FGEN
LeCroy 9210,adi_zcg_lib_lecroy_9210_config_screen-2.0.0.8.vip,2.0.0.8,ADI,,www.analog.com,,,,,Reusables/Instrument Config Panels/FGEN
HMC-T21xx,adi_zcg_lib_hmc_t21xx_config_screen-1.0.0.1.vip,1.0.0.1,ADI,,www.analog.com,,,,,Reusables/Instrument Config Panels/FGEN
VEI Linear Control,adi_zcg_lib_vei_linear_control_config_screen-1.0.0.4.vip,1.0.0.4,ADI,,www.analog.com,,,,,Reusables/Instrument Config Panels/Linear Control
LFAS Board,adi_zcg_lib_lfas_board_cp-2.0.0.13.vip,2.0.0.13,ADI,,www.analog.com,,,,,Reusables/Instrument Config Panels/LPS Automation Board
Agilent 34970A MUX,adi_zcg_lib_agilent_34970a_mux_cp-2.0.0.6.vip,2.0.0.6,AZCG Central,,www.analog.com,,,,,Reusables/Instrument Config Panels/Multiplexer
Keithley 7001 MUX,adi_zcg_lib_keithley_7001_mux_config_screen-2.0.0.10.vip,2.0.0.10,AZCG Central,,www.analog.com,,,,,Reusables/Instrument Config Panels/Multiplexer
NI SWITCH MUX,adi_zcg_lib_ni_switch_mux_cp-2.0.0.2.vip,2.0.0.2,AZCG Central,,www.analog.com,,,,,Reusables/Instrument Config Panels/Multiplexer
Agilent ENA,adi_zcg_lib_agilent_ena_config_screen-1.0.0.5.vip,1.0.0.5,ADI,,www.analog.com,,,,,Reusables/Instrument Config Panels/Network Analyzer
Watlow F4,adi_zcg_lib_watlow_f4_config_screen-2.0.0.4.vip,2.0.0.4,ADI,,www.analog.com,,,,,Reusables/Instrument Config Panels/Oven
Keithley 7001 Relay Driver,adi_zcg_lib_keithley_7001_relay_config_screen-2.0.0.9.vip,2.0.0.9,AZCG Central,,www.analog.com,,,,,Reusables/Instrument Config Panels/Relay Driver
NI SWITCH Relay Driver,adi_zcg_lib_ni_switch_relay_config_screen-2.0.0.4.vip,2.0.0.4,AZCG Central,,www.analog.com,,,,,Reusables/Instrument Config Panels/Relay Driver
Keithley S46,adi_zcg_lib_keithley_s46_config_screen-1.0.0.5.vip,1.0.0.5,ADI,,www.analog.com,,,,,Reusables/Instrument Config Panels/RF Switch System
VEI Rotational Control,adi_zcg_lib_vei_rotational_control_config_screen-1.0.0.5.vip,1.0.0.5,ADI,,www.analog.com,,,,,Reusables/Instrument Config Panels/Rotational Control
Tektronix 7000 Series,adi_zcg_lib_tektronix_7000_series_config_screen-2.0.1.8.vip,2.0.1.8,ADI,,www.analog.com,,,,,Reusables/Instrument Config Panels/Scope
Keysight E363X Series,adi_zcg_lib_keysight_e363x_series_config_screen-2.0.2.24.vip,2.0.2.24,ADI,,www.analog.com,,,,,Reusables/Instrument Config Panels/SMU
Keithley 24XX,adi_zcg_lib_keithley_24xx_config_screen-2.0.1.11.vip,2.0.1.11,ADI,,www.analog.com,,,,,Reusables/Instrument Config Panels/SMU
NI SMU,adi_zcg_lib_ni_smu_config_screen-2.0.0.15.vip,2.0.0.15,ADI,,www.analog.com,,,,,Reusables/Instrument Config Panels/SMU
Agilent E364X Series,adi_zcg_lib_agilent_e364x_config_screen-1.0.0.4.vip,1.0.0.4,ADI,,www.analog.com,,,,,Reusables/Instrument Config Panels/SMU
Krohn Hite 523,adi_zcg_lib_krohn_hite_523_cp-2.0.1.12.vip,2.0.1.12,ADI,,www.analog.com,,,,,Reusables/Instrument Config Panels/SMU
Keysight E363XX Series,adi_zcg_lib_keysight_e363xx_series_config_screen-1.0.1.8.vip,1.0.1.8,ADI,,www.analog.com,,,,,Reusables/Instrument Config Panels/SMU
Simulation SMU,adi_zcg_lib_simulation_smu_config_screen-1.0.0.3.vip,1.0.0.3,ADI,,www.analog.com,,,,,Reusables/Instrument Config Panels/SMU
Data Precision 8200,adi_zcg_lib_data_precision_8200_config_screen-1.0.0.6.vip,1.0.0.6,ADI,,www.analog.com,,,,,Reusables/Instrument Config Panels/SMU
Keithley_2450,adi_zcg_lib_keithley_2450_config_screen-2.0.0.8.vip,2.0.0.8,ADI,,www.analog.com,,,,,Reusables/Instrument Config Panels/SMU
ATS 7xx-8xx series,adi_zcg_lib_ats_7xx_8xx_series_config_screen-1.0.0.3.vip,1.0.0.3,ADI,,www.analog.com,,,,,Reusables/Instrument Config Panels/Thermostream
Thermojet,adi_zcg_lib_thermojet_config_screen-1.0.0.2.vip,1.0.0.2,ADI,,www.analog.com,,,,,Reusables/Instrument Config Panels/Thermostream
Temptronic TP043xx,adi_zcg_lib_temptronic_tp043xx_config_screen-1.0.0.10.vip,1.0.0.10,ADI,,www.analog.com,,,,,Reusables/Instrument Config Panels/Thermostream
ATS 5xx-6xx series,adi_zcg_lib_ats_5xx_6xx_series_config_screen-1.0.0.5.vip,1.0.0.5,ADI,,www.analog.com,,,,,Reusables/Instrument Config Panels/Thermostream
