Package Display Name,Package Name,Package Version,Author,Release Date,Link to Confluence or/Share point for release notes,Link to Confluence or/Share point for release checklist,Tag/Label,Tags/Keywords,Supported Version,Package Location
AIO Base,adi_zcg_hal_aio_base-1.0.0.2.vip,1.0.0.2,AZCG Central,,www.analog.com,,,,,Reusables/Instrument Dependencies/Parents and Child Templates
AIO Template,adi_zcg_hal_aio_template-1.0.0.2.vip,1.0.0.2,AZCG Central,,www.analog.com,,,,,Reusables/Instrument Dependencies/Parents and Child Templates
Audio Precision Base,adi_zcg_hal_audio_precision_base-1.0.0.3.vip,1.0.0.3,AZCG Central,,www.analog.com,,,,,Reusables/Instrument Dependencies/Parents and Child Templates
Audio Precision Template,adi_zcg_hal_audio_precision_template-1.0.0.2.vip,1.0.0.2,AZCG Central,,www.analog.com,,,,,Reusables/Instrument Dependencies/Parents and Child Templates
DIO Base,adi_zcg_hal_dio_base-1.0.0.5.vip,1.0.0.5,AZCG Central,,www.analog.com,,,,,Reusables/Instrument Dependencies/Parents and Child Templates
DIO Template,adi_zcg_hal_dio_template-1.0.0.4.vip,1.0.0.4,AZCG Central,,www.analog.com,,,,,Reusables/Instrument Dependencies/Parents and Child Templates
DMM Base,adi_zcg_hal_dmm_base-2.0.1.8.vip,2.0.1.8,AZCG Central,,www.analog.com,,,,,Reusables/Instrument Dependencies/Parents and Child Templates
DMM Template,adi_zcg_hal_dmm_template-2.0.1.4.vip,2.0.1.4,AZCG Central,,www.analog.com,,,,,Reusables/Instrument Dependencies/Parents and Child Templates
FGEN Base,adi_zcg_hal_fgen_base-1.0.0.3.vip,1.0.0.3,AZCG Central,,www.analog.com,,,,,Reusables/Instrument Dependencies/Parents and Child Templates
FGEN Template,adi_zcg_hal_fgen_template-1.0.0.3.vip,1.0.0.3,AZCG Central,,www.analog.com,,,,,Reusables/Instrument Dependencies/Parents and Child Templates
Linear Control Base,adi_zcg_hal_linear_control_base-1.0.0.2.vip,1.0.0.2,AZCG Central,,www.analog.com,,,,,Reusables/Instrument Dependencies/Parents and Child Templates
LPS Automation Board Base,adi_zcg_hal_lps_automation_board_base-2.0.0.12.vip,2.0.0.12,AZCG Central,,www.analog.com,,,,,Reusables/Instrument Dependencies/Parents and Child Templates
LPS Automation Board Template,adi_zcg_hal_lps_automation_board_template-2.0.0.7.vip,2.0.0.7,AZCG Central,,www.analog.com,,,,,Reusables/Instrument Dependencies/Parents and Child Templates
Multiplexer Base,adi_zcg_hal_multiplexer_base-2.0.1.4.vip,2.0.1.4,AZCG Central,,www.analog.com,,,,,Reusables/Instrument Dependencies/Parents and Child Templates
Multiplexer Template,adi_zcg_hal_multiplexer_template-2.0.1.4.vip,2.0.1.4,AZCG Central,,www.analog.com,,,,,Reusables/Instrument Dependencies/Parents and Child Templates
Network Analyzer Parent,adi_zcg_hal_network_analyzer_base-1.0.0.4.vip,1.0.0.4,AZCG Central,,www.analog.com,,,,,Reusables/Instrument Dependencies/Parents and Child Templates
Network Analyzer Template,adi_zcg_hal_network_analyzer_template-2.0.0.3.vip,2.0.0.3,AZCG Central,,www.analog.com,,,,,Reusables/Instrument Dependencies/Parents and Child Templates
Oven Base,adi_zcg_hal_oven_base-1.0.0.2.vip,1.0.0.2,AZCG Central,,www.analog.com,,,,,Reusables/Instrument Dependencies/Parents and Child Templates
Oven Template,adi_zcg_hal_oven_template-1.0.0.1.vip,1.0.0.1,AZCG Central,,www.analog.com,,,,,Reusables/Instrument Dependencies/Parents and Child Templates
Relay Driver Base,adi_zcg_hal_relay_driver_base-2.0.0.2.vip,2.0.0.2,AZCG Central,,www.analog.com,,,,,Reusables/Instrument Dependencies/Parents and Child Templates
Relay Driver Template,adi_zcg_hal_relay_driver_template-1.0.0.2.vip,1.0.0.2,AZCG Central,,www.analog.com,,,,,Reusables/Instrument Dependencies/Parents and Child Templates
RF Switch System Parent,adi_zcg_hal_rf_switch_system_base-1.0.0.2.vip,1.0.0.2,AZCG Central,,www.analog.com,,,,,Reusables/Instrument Dependencies/Parents and Child Templates
RF Switch System Template,adi_zcg_hal_rf_switch_system_template-1.0.0.2.vip,1.0.0.2,AZCG Central,,www.analog.com,,,,,Reusables/Instrument Dependencies/Parents and Child Templates
Rotational Control Base,adi_zcg_hal_rotational_control_base-1.0.0.2.vip,1.0.0.2,AZCG Central,,www.analog.com,,,,,Reusables/Instrument Dependencies/Parents and Child Templates
Scope Base,adi_zcg_hal_scope_base-1.0.0.3.vip,1.0.0.3,AZCG Central,,www.analog.com,,,,,Reusables/Instrument Dependencies/Parents and Child Templates
Scope Template,adi_zcg_hal_scope_template-1.0.0.2.vip,1.0.0.2,AZCG Central,,www.analog.com,,,,,Reusables/Instrument Dependencies/Parents and Child Templates
SMU Base,adi_zcg_hal_smu_base-2.0.0.8.vip,2.0.0.8,AZCG Central,,www.analog.com,,,,,Reusables/Instrument Dependencies/Parents and Child Templates
SMU Template,adi_zcg_hal_smu_template-2.0.0.5.vip,2.0.0.5,AZCG Central,,www.analog.com,,,,,Reusables/Instrument Dependencies/Parents and Child Templates
Thermostream Base,adi_zcg_hal_thermostream_base-1.0.0.8.vip,1.0.0.8,AZCG Central,,www.analog.com,,,,,Reusables/Instrument Dependencies/Parents and Child Templates
Thermostream Template,adi_zcg_hal_thermostream_template-1.0.0.4.vip,1.0.0.4,AZCG Central,,www.analog.com,,,,,Reusables/Instrument Dependencies/Parents and Child Templates
